module github.com/vshpelyk/kbot

go 1.20

require (
	github.com/spf13/cobra v1.8.0
	gopkg.in/telebot.v3 v3.2.1
)

require (
	github.com/inconshreveable/mousetrap v1.1.0 // indirect
	github.com/spf13/pflag v1.0.5 // indirect
	golang.org/x/lint v0.0.0-20210508222113-6edffad5e616 // indirect
	golang.org/x/tools v0.20.0 // indirect
)
